<?xml version="1.0" encoding="utf-8"?>
<!-- Generator: Adobe Illustrator 19.0.1, SVG Export Plug-In . SVG Version: 6.00 Build 0)  -->
<svg version="1.1" id="Layer_1" xmlns="http://www.w3.org/2000/svg" xmlns:xlink="http://www.w3.org/1999/xlink" x="0px" y="0px"
	 viewBox="-259 351.3 91 91.7" style="enable-background:new -259 351.3 91 91.7;" xml:space="preserve">
<style type="text/css">
	.st0{fill:#6B37A8;}
</style>
<title>2</title>
<g id="Слой_2">
	<g id="Слой_1-2">
		<path class="st0" d="M-174.4,422.3v-10.2c4-4.1,6.3-9.5,6.4-15.2c0-6.3-3.5-12.2-9.1-15.1c-3.2-19.8-21.8-33.3-41.6-30.1
			c-13.6,2.2-24.8,11.9-28.9,25.1c-3.4,0.2-6.1,3-6.1,6.4v13c-1.3,0.9-2.1,2.4-2.1,4v6.5c-1.8,0.5-3,2.2-3.1,4.1v27.8
			c0,2.4,1.9,4.3,4.3,4.3h21c2.4,0,4.3-1.9,4.3-4.3v-18.7c3.7,1.9,7.7,3.1,11.8,3.6v8h-1.4c-5.4,0-9.8,4.4-9.8,9.8
			c0,0.8,0.7,1.5,1.5,1.5h29.6c0.8,0,1.5-0.7,1.5-1.5c0-5.4-4.4-9.8-9.8-9.8h-1.5v-8.1c4.1-0.6,8.1-2,11.8-4v2.8c0,0,0,0.1,0,0.1
			s0,0.1,0,0.1v12c0,4.6,3.8,8.4,8.4,8.4h4.4c4.6,0,8.4-3.8,8.4-8.4v-12c0,0,0-0.1,0-0.1S-174.4,422.4-174.4,422.3z M-192.6,413
			h15.2v8h-15.2V413z M-171,397c-0.1,4.9-2.1,9.5-5.6,13h-2v-12c0-0.8-0.7-1.5-1.5-1.5s-1.5,0.7-1.5,1.5v12h-12
			c-3.4-3.5-5.4-8.1-5.6-13c-0.2-7.8,5.9-14.2,13.7-14.4s14.2,5.9,14.4,13.7C-171,396.5-171,396.7-171,397L-171,397z M-250.8,383.3
			c0-1.9,1.6-3.4,3.4-3.4c0.5,0,1,0.1,1.5,0.4l6.6,3.3c1,0.5,1.6,1.4,1.6,2.5v9.5h-13L-250.8,383.3z M-252.9,400.3
			c0-1,0.8-1.8,1.8-1.8c0,0,0,0,0,0h13.5c1,0,1.8,0.8,1.8,1.8c0,0,0,0,0,0v6.4h-17.2V400.3z M-232.4,438.7c0,0.7-0.6,1.3-1.3,1.3
			h-21c-0.7,0-1.3-0.5-1.3-1.2c0,0,0,0,0,0v-27.8c0-0.7,0.6-1.3,1.3-1.3l0,0h21c0.7,0,1.3,0.6,1.3,1.3l0,0L-232.4,438.7z
			 M-199.4,440h-26.3c0.7-3.1,3.4-5.3,6.6-5.3h13.1C-202.8,434.7-200.1,436.9-199.4,440z M-210.4,431.7h-4.1v-7.8
			c0.5,0,1.1,0.1,1.6,0.1c0.9,0,1.7,0,2.5-0.1V431.7z M-213,421c-0.9,0-1.7,0-2.6-0.1c-0.2-0.1-0.4-0.1-0.5-0.1h-0.2
			c-4.6-0.5-9.1-1.9-13.1-4.2v-5.7c0-2-1.4-3.7-3.3-4.2v-6.5c0-1.5-0.7-3-2-3.9V386c0-2.2-1.3-4.2-3.2-5.2l-6.5-3.3l-0.2-0.1
			c5.6-17.5,24.4-27.2,42-21.5c11.3,3.6,19.8,13,22.4,24.6c-1.5-0.4-3-0.7-4.6-0.7c-0.3,0-0.5,0-0.8,0c-4.2-15-19.9-23.7-34.9-19.5
			c-7.4,2.1-13.6,7.1-17.2,13.9c-0.4,0.7-0.1,1.6,0.6,2c0.7,0.4,1.6,0.1,2-0.6c5.8-10.8,18.6-15.9,30.3-12l-15.5,15.7
			c-0.6,0.6-0.6,1.5,0,2.1c0.6,0.6,1.5,0.6,2.1,0l0,0l16.4-16.6c2.4,1.1,4.5,2.6,6.4,4.4l-24.8,25.1c-0.6,0.6-0.5,1.6,0.1,2.1
			c0.6,0.5,1.5,0.5,2,0l24.7-25c2.1,2.6,3.7,5.6,4.7,8.8c-7.8,1.8-13.3,8.7-13.3,16.6c0.1,4.1,1.3,8,3.5,11.4
			c-7.2,5-16.6,5.9-24.7,2.3c-0.7-0.4-1.6,0-2,0.7s0,1.6,0.7,2c0,0,0,0,0.1,0c9,4,19.5,3,27.6-2.6c0.4,0.5,0.8,0.9,1.2,1.3v4
			C-200.9,419.3-206.9,421-213,421z M-182.9,440h-4.4c-3,0-5.4-2.4-5.4-5.4V424h15.2v10.6C-177.5,437.6-179.9,440-182.9,440
			L-182.9,440z"/>
	</g>
</g>
</svg>
